…
    ## [1] -0.08378436 -0.98294375 -1.87506732 -0.18614466 -0.63348570

Yay! The same exact *random* samples. So how can we use this to create
our train-test splits? There are many ways, though we will stick to our
`{tidymodels}` workflow.

``` r
library(tidymodels)
# diamonds dataset from {ggplot2} (loaded with {tidymodels})
diamonds
```

    ## # A tibble: 53,940 × 10
    ##    carat cut       color clarity depth table price     x     y     z
    ##    <dbl> <ord>     <ord> <ord>   <dbl> <dbl> <int> <dbl> <dbl> <dbl>
    ##  1  0.23 Ideal     E     SI2      61.5    55   326  3.95  3.98  2.43
    ##  2  0.21 Premium   E     SI1      59.8    61   326  3.89  3.84  2.31
    ##  3  0.23 Good      E     VS1      56.9    65   327  4.05  4.07  2.31
    ##  4  0.29 Premium   I     VS2      62.4    58   334  4.2   4.23  2.63
    ##  5  0.31 Good      J     SI2      63.3    58   335  4.34  4.35  2.75
    ##  6  0.24 Very Good J     VVS2     62.8    57   336  3.94  3.96  2.48
    ##  7  0.24 Very Good I     VVS1     62.3    57   336  3.95  3.98  2.47
    ##  8  0.26 Very Good H     SI1      61.9    55   337  4.07  4.11  2.53
    ##  9  0.22 Fair      E     VS2      65.1    61   337  3.87  3.78  2.49
    ## 10  0.23 Very Good H     VS1      59.4    61   338  4     4.05  2.39
    ## # … with 53,930 more rows
``` r
# set seed before random split
set.seed(1)
# put 80% of the data into the training set
diamonds_split <- initial_split(diamonds, prop = 0.80)

# assign the two splits to data frames - with descriptive names
diamonds_train <- training(diamonds_split)
diamonds_test <- testing(diamonds_split)

# splits
diamonds_train
```

    ## # A tibble: 43,152 × 10
    ##    carat cut       color clarity depth table price     x     y     z
    ##    <dbl> <ord>     <ord> <ord>   <dbl> <dbl> <int> <dbl> <dbl> <dbl>
    ##  1  0.41 Very Good D     SI2      62.3    61   638  4.72  4.75  2.95
    ##  2  0.5  Very Good F     VS2      62.8    57  1402  5.05  5.08  3.18
    ##  3  1.03 Fair      I     SI2      65.2    56  3530  6.42  6.35  4.16
    ##  4  1.1  Ideal     I     SI1      62.1    57  5037  6.6   6.64  4.11
    ##  5  1.51 Very Good E     VS2      63.3    61 13757  7.24  7.17  4.56
    ##  6  0.3  Ideal     H     VS2      62.1    55   457  4.3   4.33  2.68
    ##  7  0.87 Premium   J     SI1      61.4    57  2321  6.17  6.14  3.78
    ##  8  1.05 Very Good H     VS1      63.3    57  5657  6.45  6.4   4.07
    ##  9  1    Good      F     SI1      64      57  4372  6.29  6.33  4.04
    ## 10  2.01 Good      I     SI1      63.8    57 13976  7.95  7.91  5.06
    ## # … with 43,142 more rows

``` r
diamonds_test
```

    ## # A tibble: 10,788 × 10
    ##    carat cut       color clarity depth table price     x     y     z
    ##    <dbl> <ord>     <ord> <ord>   <dbl> <dbl> <int> <dbl> <dbl> <dbl>
    ##  1  0.3  Good      J     SI1      64      55   339  4.25  4.28  2.73
    ##  2  0.3  Very Good J     VS2      62.2    57   357  4.28  4.3   2.67
    ##  3  0.23 Very Good F     VS1      60.9    57   357  3.96  3.99  2.42
    ##  4  0.23 Very Good F     VS1      59.8    57   402  4.04  4.06  2.42
    ##  5  0.23 Very Good D     VS1      61.9    58   402  3.92  3.96  2.44
    ##  6  0.23 Good      F     VS1      58.2    59   402  4.06  4.08  2.37
    ##  7  0.23 Good      E     VS1      64.1    59   402  3.83  3.85  2.46
    ##  8  0.32 Good      H     SI2      63.1    56   403  4.34  4.37  2.75
    ##  9  0.32 Good      H     SI2      63.8    56   403  4.36  4.38  2.79
    ## 10  0.3  Ideal     I     SI2      61      59   405  4.3   4.33  2.63
    ## # … with 10,778 more rows
…
